{
  "species": [{
    "name": "blackberry bush",
    "plural_name": "blackberry bushes",
    "adjective": "",
    "commonality": 0,
    "possible_traits": null,
    "common_traits": null,
    "age_categories": null,
    "min_humidity": 3,
    "max_humidity": 10,
    "min_temperature": 2,
    "max_temperature": 10,
    "resources": [{
      "name": "blackberry",
      "description": "",
      "main_material": "blackberry",
      "origin": "blackberry bush",
      "tags": ["berry", "fruit"],
      "commonality": 5,
      "value": 1
    }],
    "tags": ["bush"]
  }, {
    "name": "blueberry bush",
    "plural_name": "blueberry bushes",
    "adjective": "",
    "commonality": 0,
    "possible_traits": null,
    "common_traits": null,
    "age_categories": null,
    "min_humidity": 3,
    "max_humidity": 10,
    "min_temperature": 2,
    "max_temperature": 10,
    "resources": [{
      "name": "blueberry",
      "description": "",
      "main_material": "blueberry",
      "origin": "blueberry bush",
      "tags": ["berry", "fruit"],
      "commonality": 5,
      "value": 1
    }],
    "tags": ["bush"]
  }, {
    "name": "raspberry bush",
    "plural_name": "raspberry bushes",
    "adjective": "",
    "commonality": 0,
    "possible_traits": null,
    "common_traits": null,
    "age_categories": null,
    "min_humidity": 3,
    "max_humidity": 10,
    "min_temperature": 2,
    "max_temperature": 10,
    "resources": [{
      "name": "raspberry",
      "description": "",
      "main_material": "raspberry",
      "origin": "raspberry bush",
      "tags": ["berry", "fruit"],
      "commonality": 5,
      "value": 1
    }],
    "tags": ["bush"]
  }, {
    "name": "strawberry bush",
    "plural_name": "strawberry bushes",
    "adjective": "",
    "commonality": 0,
    "possible_traits": null,
    "common_traits": null,
    "age_categories": null,
    "min_humidity": 3,
    "max_humidity": 10,
    "min_temperature": 2,
    "max_temperature": 10,
    "resources": [{
      "name": "strawberry",
      "description": "",
      "main_material": "strawberry",
      "origin": "strawberry bush",
      "tags": ["berry", "fruit"],
      "commonality": 5,
      "value": 1
    }],
    "tags": ["bush"]
  }, {
    "name": "boysenberry bush",
    "plural_name": "boysenberry bushes",
    "adjective": "",
    "commonality": 0,
    "possible_traits": null,
    "common_traits": null,
    "age_categories": null,
    "min_humidity": 3,
    "max_humidity": 10,
    "min_temperature": 2,
    "max_temperature": 10,
    "resources": [{
      "name": "boysenberry",
      "description": "",
      "main_material": "boysenberry",
      "origin": "boysenberry bush",
      "tags": ["berry", "fruit"],
      "commonality": 5,
      "value": 1
    }],
    "tags": ["bush"]
  }, {
    "name": "gooseberry bush",
    "plural_name": "gooseberry bushes",
    "adjective": "",
    "commonality": 0,
    "possible_traits": null,
    "common_traits": null,
    "age_categories": null,
    "min_humidity": 3,
    "max_humidity": 10,
    "min_temperature": 2,
    "max_temperature": 10,
    "resources": [{
      "name": "gooseberry",
      "description": "",
      "main_material": "gooseberry",
      "origin": "gooseberry bush",
      "tags": ["berry", "fruit"],
      "commonality": 5,
      "value": 1
    }],
    "tags": ["bush"]
  }, {
    "name": "agave",
    "plural_name": "agave",
    "adjective": "",
    "commonality": 0,
    "possible_traits": null,
    "common_traits": null,
    "age_categories": null,
    "min_humidity": 0,
    "max_humidity": 10,
    "min_temperature": 6,
    "max_temperature": 10,
    "resources": [{
      "name": "agave fiber",
      "description": "",
      "main_material": "agave",
      "origin": "agave",
      "tags": ["fiber"],
      "commonality": 5,
      "value": 1
    }, {
      "name": "agave needle",
      "description": "",
      "main_material": "agave",
      "origin": "agave",
      "tags": ["needle"],
      "commonality": 5,
      "value": 1
    }, {
      "name": "agave sap",
      "description": "",
      "main_material": "agave",
      "origin": "agave",
      "tags": ["sap"],
      "commonality": 5,
      "value": 1
    }],
    "tags": ["cactus"]
  }, {
    "name": "pitahaya",
    "plural_name": "pitahayas",
    "adjective": "",
    "commonality": 0,
    "possible_traits": null,
    "common_traits": null,
    "age_categories": null,
    "min_humidity": 5,
    "max_humidity": 10,
    "min_temperature": 6,
    "max_temperature": 10,
    "resources": [{
      "name": "dragonfruit",
      "description": "",
      "main_material": "dragonfruit",
      "origin": "pitahaya",
      "tags": ["fruit"],
      "commonality": 5,
      "value": 1
    }],
    "tags": ["cactus"]
  }, {
    "name": "saguaro",
    "plural_name": "saguaro",
    "adjective": "",
    "commonality": 0,
    "possible_traits": null,
    "common_traits": null,
    "age_categories": null,
    "min_humidity": 0,
    "max_humidity": 10,
    "min_temperature": 7,
    "max_temperature": 10,
    "resources": [{
      "name": "saguaro fiber",
      "description": "",
      "main_material": "saguaro",
      "origin": "saguaro",
      "tags": ["fiber"],
      "commonality": 5,
      "value": 1
    }, {
      "name": "saguaro",
      "description": "",
      "main_material": "saguaro",
      "origin": "saguaro",
      "tags": ["fruit"],
      "commonality": 5,
      "value": 1
    }, {
      "name": "saguaro needle",
      "description": "",
      "main_material": "saguaro",
      "origin": "saguaro",
      "tags": ["needle"],
      "commonality": 5,
      "value": 1
    }, {
      "name": "saguaro sap",
      "description": "",
      "main_material": "saguaro",
      "origin": "saguaro",
      "tags": ["sap"],
      "commonality": 5,
      "value": 1
    }],
    "tags": ["cactus"]
  }, {
    "name": "cotton",
    "plural_name": "cotton",
    "adjective": "",
    "commonality": 0,
    "possible_traits": null,
    "common_traits": null,
    "age_categories": null,
    "min_humidity": 0,
    "max_humidity": 10,
    "min_temperature": 0,
    "max_temperature": 10,
    "resources": [{
      "name": "cotton",
      "description": "",
      "main_material": "cotton",
      "origin": "cotton",
      "tags": ["fabric fiber"],
      "commonality": 5,
      "value": 1
    }],
    "tags": ["fiber"]
  }, {
    "name": "flax",
    "plural_name": "flax",
    "adjective": "",
    "commonality": 0,
    "possible_traits": null,
    "common_traits": null,
    "age_categories": null,
    "min_humidity": 0,
    "max_humidity": 10,
    "min_temperature": 0,
    "max_temperature": 10,
    "resources": [{
      "name": "linen",
      "description": "",
      "main_material": "linen",
      "origin": "flax",
      "tags": ["fabric fiber"],
      "commonality": 5,
      "value": 1
    }],
    "tags": ["fiber"]
  }, {
    "name": "hemp",
    "plural_name": "hemp",
    "adjective": "",
    "commonality": 0,
    "possible_traits": null,
    "common_traits": null,
    "age_categories": null,
    "min_humidity": 3,
    "max_humidity": 10,
    "min_temperature": 2,
    "max_temperature": 9,
    "resources": [{
      "name": "hemp",
      "description": "",
      "main_material": "hemp",
      "origin": "hemp",
      "tags": ["fabric fiber"],
      "commonality": 5,
      "value": 1
    }],
    "tags": ["fiber"]
  }, {
    "name": "coir",
    "plural_name": "coir",
    "adjective": "",
    "commonality": 0,
    "possible_traits": null,
    "common_traits": null,
    "age_categories": null,
    "min_humidity": 6,
    "max_humidity": 10,
    "min_temperature": 8,
    "max_temperature": 10,
    "resources": [{
      "name": "coir seed",
      "description": "",
      "main_material": "coir",
      "origin": "coir",
      "tags": ["seed"],
      "commonality": 5,
      "value": 1
    }],
    "tags": ["fiber"]
  }, {
    "name": "papyrus",
    "plural_name": "papyrus",
    "adjective": "",
    "commonality": 0,
    "possible_traits": null,
    "common_traits": null,
    "age_categories": null,
    "min_humidity": 0,
    "max_humidity": 10,
    "min_temperature": 2,
    "max_temperature": 9,
    "resources": [{
      "name": "papyrus",
      "description": "",
      "main_material": "papyrus",
      "origin": "papyrus",
      "tags": ["paper"],
      "commonality": 5,
      "value": 1
    }],
    "tags": ["fiber"]
  }, {
    "name": "jute",
    "plural_name": "jute",
    "adjective": "",
    "commonality": 0,
    "possible_traits": null,
    "common_traits": null,
    "age_categories": null,
    "min_humidity": 3,
    "max_humidity": 10,
    "min_temperature": 2,
    "max_temperature": 9,
    "resources": [{
      "name": "jute",
      "description": "",
      "main_material": "jute",
      "origin": "jute",
      "tags": ["fabric fiber"],
      "commonality": 5,
      "value": 1
    }],
    "tags": ["fiber"]
  }, {
    "name": "ramie",
    "plural_name": "ramie",
    "adjective": "",
    "commonality": 0,
    "possible_traits": null,
    "common_traits": null,
    "age_categories": null,
    "min_humidity": 3,
    "max_humidity": 10,
    "min_temperature": 0,
    "max_temperature": 10,
    "resources": [{
      "name": "ramie",
      "description": "",
      "main_material": "ramie",
      "origin": "ramie",
      "tags": ["fabric fiber"],
      "commonality": 5,
      "value": 1
    }],
    "tags": ["fiber"]
  }, {
    "name": "rye",
    "plural_name": "ryes",
    "adjective": "",
    "commonality": 0,
    "possible_traits": null,
    "common_traits": null,
    "age_categories": null,
    "min_humidity": 3,
    "max_humidity": 10,
    "min_temperature": 3,
    "max_temperature": 10,
    "resources": [{
      "name": "rye",
      "description": "",
      "main_material": "rye",
      "origin": "rye",
      "tags": ["grain"],
      "commonality": 5,
      "value": 1
    }],
    "tags": ["grain"]
  }, {
    "name": "oat",
    "plural_name": "oats",
    "adjective": "",
    "commonality": 0,
    "possible_traits": null,
    "common_traits": null,
    "age_categories": null,
    "min_humidity": 3,
    "max_humidity": 10,
    "min_temperature": 3,
    "max_temperature": 10,
    "resources": [{
      "name": "oat",
      "description": "",
      "main_material": "oat",
      "origin": "oat",
      "tags": ["grain"],
      "commonality": 5,
      "value": 1
    }],
    "tags": ["grain"]
  }, {
    "name": "millet",
    "plural_name": "millets",
    "adjective": "",
    "commonality": 0,
    "possible_traits": null,
    "common_traits": null,
    "age_categories": null,
    "min_humidity": 3,
    "max_humidity": 10,
    "min_temperature": 3,
    "max_temperature": 10,
    "resources": [{
      "name": "millet",
      "description": "",
      "main_material": "millet",
      "origin": "millet",
      "tags": ["grain"],
      "commonality": 5,
      "value": 1
    }],
    "tags": ["grain"]
  }, {
    "name": "barley",
    "plural_name": "barleys",
    "adjective": "",
    "commonality": 0,
    "possible_traits": null,
    "common_traits": null,
    "age_categories": null,
    "min_humidity": 3,
    "max_humidity": 10,
    "min_temperature": 3,
    "max_temperature": 10,
    "resources": [{
      "name": "barley",
      "description": "",
      "main_material": "barley",
      "origin": "barley",
      "tags": ["grain"],
      "commonality": 5,
      "value": 1
    }],
    "tags": ["grain"]
  }, {
    "name": "wheat",
    "plural_name": "wheats",
    "adjective": "",
    "commonality": 0,
    "possible_traits": null,
    "common_traits": null,
    "age_categories": null,
    "min_humidity": 0,
    "max_humidity": 10,
    "min_temperature": 0,
    "max_temperature": 10,
    "resources": [{
      "name": "wheat",
      "description": "",
      "main_material": "wheat",
      "origin": "wheat",
      "tags": ["grain"],
      "commonality": 5,
      "value": 1
    }],
    "tags": ["grain"]
  }, {
    "name": "rice",
    "plural_name": "rices",
    "adjective": "",
    "commonality": 0,
    "possible_traits": null,
    "common_traits": null,
    "age_categories": null,
    "min_humidity": 3,
    "max_humidity": 10,
    "min_temperature": 3,
    "max_temperature": 10,
    "resources": [{
      "name": "rice",
      "description": "",
      "main_material": "rice",
      "origin": "rice",
      "tags": ["grain"],
      "commonality": 5,
      "value": 1
    }],
    "tags": ["grain"]
  }, {
    "name": "parsley",
    "plural_name": "parsleys",
    "adjective": "",
    "commonality": 0,
    "possible_traits": null,
    "common_traits": null,
    "age_categories": null,
    "min_humidity": 3,
    "max_humidity": 10,
    "min_temperature": 3,
    "max_temperature": 10,
    "resources": [{
      "name": "parsley",
      "description": "",
      "main_material": "parsley",
      "origin": "parsley",
      "tags": ["herb"],
      "commonality": 5,
      "value": 1
    }],
    "tags": ["herb"]
  }, {
    "name": "brahmi",
    "plural_name": "brahmis",
    "adjective": "",
    "commonality": 0,
    "possible_traits": null,
    "common_traits": null,
    "age_categories": null,
    "min_humidity": 3,
    "max_humidity": 10,
    "min_temperature": 3,
    "max_temperature": 10,
    "resources": [{
      "name": "brahmi",
      "description": "",
      "main_material": "brahmi",
      "origin": "brahmi",
      "tags": ["herb"],
      "commonality": 5,
      "value": 1
    }],
    "tags": ["herb"]
  }, {
    "name": "basil",
    "plural_name": "basils",
    "adjective": "",
    "commonality": 0,
    "possible_traits": null,
    "common_traits": null,
    "age_categories": null,
    "min_humidity": 3,
    "max_humidity": 10,
    "min_temperature": 3,
    "max_temperature": 10,
    "resources": [{
      "name": "basil",
      "description": "",
      "main_material": "basil",
      "origin": "basil",
      "tags": ["herb"],
      "commonality": 5,
      "value": 1
    }],
    "tags": ["herb"]
  }, {
    "name": "cilantro",
    "plural_name": "cilantros",
    "adjective": "",
    "commonality": 0,
    "possible_traits": null,
    "common_traits": null,
    "age_categories": null,
    "min_humidity": 3,
    "max_humidity": 10,
    "min_temperature": 3,
    "max_temperature": 10,
    "resources": [{
      "name": "cilantro",
      "description": "",
      "main_material": "cilantro",
      "origin": "cilantro",
      "tags": ["herb"],
      "commonality": 5,
      "value": 1
    }],
    "tags": ["herb"]
  }, {
    "name": "saffron",
    "plural_name": "saffrons",
    "adjective": "",
    "commonality": 0,
    "possible_traits": null,
    "common_traits": null,
    "age_categories": null,
    "min_humidity": 5,
    "max_humidity": 10,
    "min_temperature": 6,
    "max_temperature": 10,
    "resources": [{
      "name": "saffron",
      "description": "",
      "main_material": "saffron",
      "origin": "saffron",
      "tags": ["herb"],
      "commonality": 3,
      "value": 1
    }],
    "tags": ["herb"]
  }, {
    "name": "rosemary",
    "plural_name": "rosemarys",
    "adjective": "",
    "commonality": 0,
    "possible_traits": null,
    "common_traits": null,
    "age_categories": null,
    "min_humidity": 3,
    "max_humidity": 10,
    "min_temperature": 3,
    "max_temperature": 10,
    "resources": [{
      "name": "rosemary",
      "description": "",
      "main_material": "rosemary",
      "origin": "rosemary",
      "tags": ["herb"],
      "commonality": 5,
      "value": 1
    }],
    "tags": ["herb"]
  }, {
    "name": "thyme",
    "plural_name": "thymes",
    "adjective": "",
    "commonality": 0,
    "possible_traits": null,
    "common_traits": null,
    "age_categories": null,
    "min_humidity": 3,
    "max_humidity": 10,
    "min_temperature": 3,
    "max_temperature": 10,
    "resources": [{
      "name": "thyme",
      "description": "",
      "main_material": "thyme",
      "origin": "thyme",
      "tags": ["herb"],
      "commonality": 5,
      "value": 1
    }],
    "tags": ["herb"]
  }, {
    "name": "black pepper",
    "plural_name": "black peppers",
    "adjective": "",
    "commonality": 0,
    "possible_traits": null,
    "common_traits": null,
    "age_categories": null,
    "min_humidity": 3,
    "max_humidity": 10,
    "min_temperature": 3,
    "max_temperature": 10,
    "resources": [{
      "name": "black pepper",
      "description": "",
      "main_material": "black pepper",
      "origin": "black pepper",
      "tags": ["spice"],
      "commonality": 5,
      "value": 1
    }],
    "tags": ["herb"]
  }, {
    "name": "oregano",
    "plural_name": "oreganos",
    "adjective": "",
    "commonality": 0,
    "possible_traits": null,
    "common_traits": null,
    "age_categories": null,
    "min_humidity": 3,
    "max_humidity": 10,
    "min_temperature": 3,
    "max_temperature": 10,
    "resources": [{
      "name": "oregano",
      "description": "",
      "main_material": "oregano",
      "origin": "oregano",
      "tags": ["herb"],
      "commonality": 5,
      "value": 1
    }],
    "tags": ["herb"]
  }, {
    "name": "mint",
    "plural_name": "mints",
    "adjective": "",
    "commonality": 0,
    "possible_traits": null,
    "common_traits": null,
    "age_categories": null,
    "min_humidity": 3,
    "max_humidity": 10,
    "min_temperature": 3,
    "max_temperature": 10,
    "resources": [{
      "name": "mint",
      "description": "",
      "main_material": "mint",
      "origin": "mint",
      "tags": ["herb"],
      "commonality": 5,
      "value": 1
    }],
    "tags": ["herb"]
  }, {
    "name": "lemongrass",
    "plural_name": "lemongrasses",
    "adjective": "",
    "commonality": 0,
    "possible_traits": null,
    "common_traits": null,
    "age_categories": null,
    "min_humidity": 5,
    "max_humidity": 10,
    "min_temperature": 7,
    "max_temperature": 10,
    "resources": [{
      "name": "lemongrass",
      "description": "",
      "main_material": "lemongrass",
      "origin": "lemongrass",
      "tags": ["herb"],
      "commonality": 5,
      "value": 1
    }],
    "tags": ["herb"]
  }, {
    "name": "coriander",
    "plural_name": "corianders",
    "adjective": "",
    "commonality": 0,
    "possible_traits": null,
    "common_traits": null,
    "age_categories": null,
    "min_humidity": 3,
    "max_humidity": 10,
    "min_temperature": 3,
    "max_temperature": 10,
    "resources": [{
      "name": "coriander",
      "description": "",
      "main_material": "coriander",
      "origin": "coriander",
      "tags": ["spice"],
      "commonality": 5,
      "value": 1
    }],
    "tags": ["herb"]
  }, {
    "name": "clove",
    "plural_name": "cloves",
    "adjective": "",
    "commonality": 0,
    "possible_traits": null,
    "common_traits": null,
    "age_categories": null,
    "min_humidity": 3,
    "max_humidity": 10,
    "min_temperature": 3,
    "max_temperature": 10,
    "resources": [{
      "name": "clove",
      "description": "",
      "main_material": "clove",
      "origin": "clove",
      "tags": ["spice"],
      "commonality": 5,
      "value": 1
    }],
    "tags": ["herb"]
  }, {
    "name": "sage",
    "plural_name": "sages",
    "adjective": "",
    "commonality": 0,
    "possible_traits": null,
    "common_traits": null,
    "age_categories": null,
    "min_humidity": 3,
    "max_humidity": 10,
    "min_temperature": 3,
    "max_temperature": 10,
    "resources": [{
      "name": "sage",
      "description": "",
      "main_material": "sage",
      "origin": "sage",
      "tags": ["herb"],
      "commonality": 5,
      "value": 1
    }],
    "tags": ["herb"]
  }, {
    "name": "turmeric",
    "plural_name": "turmerics",
    "adjective": "",
    "commonality": 0,
    "possible_traits": null,
    "common_traits": null,
    "age_categories": null,
    "min_humidity": 3,
    "max_humidity": 10,
    "min_temperature": 7,
    "max_temperature": 10,
    "resources": [{
      "name": "turmeric",
      "description": "",
      "main_material": "turmeric",
      "origin": "turmeric",
      "tags": ["spice"],
      "commonality": 5,
      "value": 1
    }],
    "tags": ["herb"]
  }, {
    "name": "vanilla",
    "plural_name": "vanillas",
    "adjective": "",
    "commonality": 0,
    "possible_traits": null,
    "common_traits": null,
    "age_categories": null,
    "min_humidity": 3,
    "max_humidity": 10,
    "min_temperature": 7,
    "max_temperature": 10,
    "resources": [{
      "name": "vanilla",
      "description": "",
      "main_material": "vanilla",
      "origin": "vanilla",
      "tags": ["herb"],
      "commonality": 3,
      "value": 1
    }],
    "tags": ["herb"]
  }, {
    "name": "galangal",
    "plural_name": "galangals",
    "adjective": "",
    "commonality": 0,
    "possible_traits": null,
    "common_traits": null,
    "age_categories": null,
    "min_humidity": 5,
    "max_humidity": 10,
    "min_temperature": 7,
    "max_temperature": 10,
    "resources": [{
      "name": "galangal",
      "description": "",
      "main_material": "galangal",
      "origin": "galangal",
      "tags": ["spice"],
      "commonality": 5,
      "value": 1
    }],
    "tags": ["herb"]
  }, {
    "name": "ginger",
    "plural_name": "gingers",
    "adjective": "",
    "commonality": 0,
    "possible_traits": null,
    "common_traits": null,
    "age_categories": null,
    "min_humidity": 5,
    "max_humidity": 10,
    "min_temperature": 7,
    "max_temperature": 10,
    "resources": [{
      "name": "ginger",
      "description": "",
      "main_material": "ginger",
      "origin": "ginger",
      "tags": ["spice"],
      "commonality": 5,
      "value": 1
    }],
    "tags": ["herb"]
  }, {
    "name": "cantaloupe",
    "plural_name": "cantaloupes",
    "adjective": "",
    "commonality": 0,
    "possible_traits": null,
    "common_traits": null,
    "age_categories": null,
    "min_humidity": 5,
    "max_humidity": 10,
    "min_temperature": 6,
    "max_temperature": 10,
    "resources": [{
      "name": "cantaloupe",
      "description": "",
      "main_material": "cantaloupe",
      "origin": "cantaloupe",
      "tags": ["fruit"],
      "commonality": 5,
      "value": 1
    }],
    "tags": ["melon"]
  }, {
    "name": "honeydew",
    "plural_name": "honeydews",
    "adjective": "",
    "commonality": 0,
    "possible_traits": null,
    "common_traits": null,
    "age_categories": null,
    "min_humidity": 5,
    "max_humidity": 10,
    "min_temperature": 6,
    "max_temperature": 10,
    "resources": [{
      "name": "honeydew",
      "description": "",
      "main_material": "honeydew",
      "origin": "honeydew",
      "tags": ["fruit", "melon"],
      "commonality": 5,
      "value": 1
    }],
    "tags": ["melon"]
  }, {
    "name": "watermelon",
    "plural_name": "watermelons",
    "adjective": "",
    "commonality": 0,
    "possible_traits": null,
    "common_traits": null,
    "age_categories": null,
    "min_humidity": 5,
    "max_humidity": 10,
    "min_temperature": 6,
    "max_temperature": 10,
    "resources": [{
      "name": "watermelon",
      "description": "",
      "main_material": "watermelon",
      "origin": "watermelon",
      "tags": ["fruit", "melon"],
      "commonality": 5,
      "value": 1
    }],
    "tags": ["melon"]
  }, {
    "name": "acorn squash",
    "plural_name": "acorn squashes",
    "adjective": "",
    "commonality": 0,
    "possible_traits": null,
    "common_traits": null,
    "age_categories": null,
    "min_humidity": 1,
    "max_humidity": 10,
    "min_temperature": 1,
    "max_temperature": 10,
    "resources": [{
      "name": "acorn squash",
      "description": "",
      "main_material": "acorn squash",
      "origin": "acorn squash",
      "tags": ["squash"],
      "commonality": 5,
      "value": 1
    }],
    "tags": ["squash"]
  }, {
    "name": "buttercup squash",
    "plural_name": "buttercup squashes",
    "adjective": "",
    "commonality": 0,
    "possible_traits": null,
    "common_traits": null,
    "age_categories": null,
    "min_humidity": 3,
    "max_humidity": 10,
    "min_temperature": 3,
    "max_temperature": 10,
    "resources": [{
      "name": "buttercup squash",
      "description": "",
      "main_material": "buttercup squash",
      "origin": "buttercup squash",
      "tags": ["squash"],
      "commonality": 5,
      "value": 1
    }],
    "tags": ["squash"]
  }, {
    "name": "butternut squash",
    "plural_name": "butternut squashes",
    "adjective": "",
    "commonality": 0,
    "possible_traits": null,
    "common_traits": null,
    "age_categories": null,
    "min_humidity": 3,
    "max_humidity": 10,
    "min_temperature": 3,
    "max_temperature": 10,
    "resources": [{
      "name": "butternut squash",
      "description": "",
      "main_material": "butternut squash",
      "origin": "butternut squash",
      "tags": ["squash"],
      "commonality": 5,
      "value": 1
    }],
    "tags": ["squash"]
  }, {
    "name": "pumpkin",
    "plural_name": "pumpkins",
    "adjective": "",
    "commonality": 0,
    "possible_traits": null,
    "common_traits": null,
    "age_categories": null,
    "min_humidity": 3,
    "max_humidity": 10,
    "min_temperature": 1,
    "max_temperature": 10,
    "resources": [{
      "name": "pumpkin",
      "description": "",
      "main_material": "pumpkin",
      "origin": "pumpkin",
      "tags": ["squash"],
      "commonality": 5,
      "value": 1
    }, {
      "name": "pumpkin seed oil",
      "description": "",
      "main_material": "pumpkin",
      "origin": "pumpkin",
      "tags": null,
      "commonality": 2,
      "value": 1
    }],
    "tags": ["squash"]
  }, {
    "name": "spaghetti squash",
    "plural_name": "spaghetti squashes",
    "adjective": "",
    "commonality": 0,
    "possible_traits": null,
    "common_traits": null,
    "age_categories": null,
    "min_humidity": 3,
    "max_humidity": 10,
    "min_temperature": 3,
    "max_temperature": 10,
    "resources": [{
      "name": "spaghetti squash",
      "description": "",
      "main_material": "spaghetti squash",
      "origin": "spaghetti squash",
      "tags": ["squash"],
      "commonality": 5,
      "value": 1
    }],
    "tags": ["squash"]
  }, {
    "name": "zucchini",
    "plural_name": "zucchini",
    "adjective": "",
    "commonality": 0,
    "possible_traits": null,
    "common_traits": null,
    "age_categories": null,
    "min_humidity": 3,
    "max_humidity": 10,
    "min_temperature": 2,
    "max_temperature": 10,
    "resources": [{
      "name": "zucchini",
      "description": "",
      "main_material": "zucchini",
      "origin": "zucchini",
      "tags": ["squash"],
      "commonality": 5,
      "value": 1
    }],
    "tags": ["squash"]
  }, {
    "name": "potato",
    "plural_name": "potatoes",
    "adjective": "",
    "commonality": 0,
    "possible_traits": null,
    "common_traits": null,
    "age_categories": null,
    "min_humidity": 3,
    "max_humidity": 10,
    "min_temperature": 2,
    "max_temperature": 10,
    "resources": [{
      "name": "potato",
      "description": "",
      "main_material": "potato",
      "origin": "potato",
      "tags": ["root vegetable", "vegetable"],
      "commonality": 5,
      "value": 1
    }],
    "tags": ["root"]
  }, {
    "name": "onion",
    "plural_name": "onions",
    "adjective": "",
    "commonality": 0,
    "possible_traits": null,
    "common_traits": null,
    "age_categories": null,
    "min_humidity": 3,
    "max_humidity": 10,
    "min_temperature": 2,
    "max_temperature": 10,
    "resources": [{
      "name": "onion",
      "description": "",
      "main_material": "onion",
      "origin": "onion",
      "tags": ["root vegetable", "vegetable"],
      "commonality": 5,
      "value": 1
    }],
    "tags": ["root"]
  }, {
    "name": "beet",
    "plural_name": "beets",
    "adjective": "",
    "commonality": 0,
    "possible_traits": null,
    "common_traits": null,
    "age_categories": null,
    "min_humidity": 3,
    "max_humidity": 10,
    "min_temperature": 2,
    "max_temperature": 10,
    "resources": [{
      "name": "beet",
      "description": "",
      "main_material": "beet",
      "origin": "beet",
      "tags": ["root vegetable", "vegetable"],
      "commonality": 5,
      "value": 1
    }],
    "tags": ["root"]
  }, {
    "name": "radish",
    "plural_name": "radishes",
    "adjective": "",
    "commonality": 0,
    "possible_traits": null,
    "common_traits": null,
    "age_categories": null,
    "min_humidity": 3,
    "max_humidity": 10,
    "min_temperature": 2,
    "max_temperature": 10,
    "resources": [{
      "name": "radish",
      "description": "",
      "main_material": "radish",
      "origin": "radish",
      "tags": ["root vegetable", "vegetable"],
      "commonality": 5,
      "value": 1
    }],
    "tags": ["root"]
  }, {
    "name": "yam",
    "plural_name": "yams",
    "adjective": "",
    "commonality": 0,
    "possible_traits": null,
    "common_traits": null,
    "age_categories": null,
    "min_humidity": 3,
    "max_humidity": 10,
    "min_temperature": 2,
    "max_temperature": 10,
    "resources": [{
      "name": "yam",
      "description": "",
      "main_material": "yam",
      "origin": "yam",
      "tags": ["root vegetable", "vegetable"],
      "commonality": 5,
      "value": 1
    }],
    "tags": ["root"]
  }, {
    "name": "carrot",
    "plural_name": "carrots",
    "adjective": "",
    "commonality": 0,
    "possible_traits": null,
    "common_traits": null,
    "age_categories": null,
    "min_humidity": 3,
    "max_humidity": 10,
    "min_temperature": 2,
    "max_temperature": 10,
    "resources": [{
      "name": "carrot",
      "description": "",
      "main_material": "carrot",
      "origin": "carrot",
      "tags": ["root vegetable", "vegetable"],
      "commonality": 5,
      "value": 1
    }],
    "tags": ["root"]
  }, {
    "name": "eggplant",
    "plural_name": "eggplants",
    "adjective": "",
    "commonality": 0,
    "possible_traits": null,
    "common_traits": null,
    "age_categories": null,
    "min_humidity": 3,
    "max_humidity": 10,
    "min_temperature": 7,
    "max_temperature": 10,
    "resources": [{
      "name": "eggplant",
      "description": "",
      "main_material": "eggplant",
      "origin": "eggplant",
      "tags": ["vegetable"],
      "commonality": 5,
      "value": 1
    }],
    "tags": ["berry"]
  }, {
    "name": "kohlrabi",
    "plural_name": "kohlrabis",
    "adjective": "",
    "commonality": 0,
    "possible_traits": null,
    "common_traits": null,
    "age_categories": null,
    "min_humidity": 3,
    "max_humidity": 10,
    "min_temperature": 2,
    "max_temperature": 10,
    "resources": [{
      "name": "kohlrabi",
      "description": "",
      "main_material": "kohlrabi",
      "origin": "kohlrabi",
      "tags": ["root vegetable", "vegetable"],
      "commonality": 5,
      "value": 1
    }],
    "tags": ["root"]
  }, {
    "name": "cabbage",
    "plural_name": "cabbages",
    "adjective": "",
    "commonality": 0,
    "possible_traits": null,
    "common_traits": null,
    "age_categories": null,
    "min_humidity": 3,
    "max_humidity": 10,
    "min_temperature": 2,
    "max_temperature": 10,
    "resources": [{
      "name": "cabbage",
      "description": "",
      "main_material": "cabbage",
      "origin": "cabbage",
      "tags": ["vegetable"],
      "commonality": 5,
      "value": 1
    }],
    "tags": ["vegetable"]
  }, {
    "name": "lettuce",
    "plural_name": "lettuces",
    "adjective": "",
    "commonality": 0,
    "possible_traits": null,
    "common_traits": null,
    "age_categories": null,
    "min_humidity": 3,
    "max_humidity": 10,
    "min_temperature": 2,
    "max_temperature": 10,
    "resources": [{
      "name": "lettuce",
      "description": "",
      "main_material": "lettuce",
      "origin": "lettuce",
      "tags": ["vegetable"],
      "commonality": 5,
      "value": 1
    }],
    "tags": ["vegetable"]
  }, {
    "name": "fiddlehead",
    "plural_name": "fiddleheads",
    "adjective": "",
    "commonality": 0,
    "possible_traits": null,
    "common_traits": null,
    "age_categories": null,
    "min_humidity": 3,
    "max_humidity": 10,
    "min_temperature": 2,
    "max_temperature": 10,
    "resources": [{
      "name": "fiddlehead",
      "description": "",
      "main_material": "fiddlehead",
      "origin": "fiddlehead",
      "tags": ["vegetable"],
      "commonality": 5,
      "value": 1
    }],
    "tags": ["vegetable"]
  }, {
    "name": "broccoli",
    "plural_name": "broccolis",
    "adjective": "",
    "commonality": 0,
    "possible_traits": null,
    "common_traits": null,
    "age_categories": null,
    "min_humidity": 3,
    "max_humidity": 10,
    "min_temperature": 2,
    "max_temperature": 10,
    "resources": [{
      "name": "broccoli",
      "description": "",
      "main_material": "broccoli",
      "origin": "broccoli",
      "tags": ["vegetable"],
      "commonality": 5,
      "value": 1
    }],
    "tags": ["vegetable"]
  }, {
    "name": "cauliflower",
    "plural_name": "cauliflowers",
    "adjective": "",
    "commonality": 0,
    "possible_traits": null,
    "common_traits": null,
    "age_categories": null,
    "min_humidity": 3,
    "max_humidity": 10,
    "min_temperature": 2,
    "max_temperature": 10,
    "resources": [{
      "name": "cauliflower",
      "description": "",
      "main_material": "cauliflower",
      "origin": "cauliflower",
      "tags": ["vegetable"],
      "commonality": 5,
      "value": 1
    }],
    "tags": ["vegetable"]
  }, {
    "name": "tomato",
    "plural_name": "tomatoes",
    "adjective": "",
    "commonality": 0,
    "possible_traits": null,
    "common_traits": null,
    "age_categories": null,
    "min_humidity": 3,
    "max_humidity": 10,
    "min_temperature": 2,
    "max_temperature": 10,
    "resources": [{
      "name": "tomato",
      "description": "",
      "main_material": "tomato",
      "origin": "tomato",
      "tags": ["vegetable"],
      "commonality": 5,
      "value": 1
    }],
    "tags": ["vegetable"]
  }, {
    "name": "bell pepper",
    "plural_name": "bell peppers",
    "adjective": "",
    "commonality": 0,
    "possible_traits": null,
    "common_traits": null,
    "age_categories": null,
    "min_humidity": 3,
    "max_humidity": 10,
    "min_temperature": 2,
    "max_temperature": 10,
    "resources": [{
      "name": "bell pepper",
      "description": "",
      "main_material": "bell pepper",
      "origin": "bell pepper",
      "tags": ["vegetable"],
      "commonality": 5,
      "value": 1
    }],
    "tags": ["vegetable"]
  }, {
    "name": "bok choy",
    "plural_name": "bok choys",
    "adjective": "",
    "commonality": 0,
    "possible_traits": null,
    "common_traits": null,
    "age_categories": null,
    "min_humidity": 3,
    "max_humidity": 10,
    "min_temperature": 2,
    "max_temperature": 10,
    "resources": [{
      "name": "bok choy",
      "description": "",
      "main_material": "bok choy",
      "origin": "bok choy",
      "tags": ["vegetable"],
      "commonality": 5,
      "value": 1
    }],
    "tags": ["vegetable"]
  }, {
    "name": "leek",
    "plural_name": "leeks",
    "adjective": "",
    "commonality": 0,
    "possible_traits": null,
    "common_traits": null,
    "age_categories": null,
    "min_humidity": 3,
    "max_humidity": 10,
    "min_temperature": 2,
    "max_temperature": 10,
    "resources": [{
      "name": "leek",
      "description": "",
      "main_material": "leek",
      "origin": "leek",
      "tags": ["vegetable"],
      "commonality": 5,
      "value": 1
    }],
    "tags": ["vegetable"]
  }, {
    "name": "brussel sprout",
    "plural_name": "brussel sprouts",
    "adjective": "",
    "commonality": 0,
    "possible_traits": null,
    "common_traits": null,
    "age_categories": null,
    "min_humidity": 3,
    "max_humidity": 10,
    "min_temperature": 2,
    "max_temperature": 10,
    "resources": [{
      "name": "brussel sprouts",
      "description": "",
      "main_material": "brussel sprout",
      "origin": "brussel sprout",
      "tags": ["vegetable"],
      "commonality": 5,
      "value": 1
    }],
    "tags": ["vegetable"]
  }, {
    "name": "green bean",
    "plural_name": "green beans",
    "adjective": "",
    "commonality": 0,
    "possible_traits": null,
    "common_traits": null,
    "age_categories": null,
    "min_humidity": 3,
    "max_humidity": 10,
    "min_temperature": 2,
    "max_temperature": 10,
    "resources": [{
      "name": "green beans",
      "description": "",
      "main_material": "green bean",
      "origin": "green bean",
      "tags": ["vegetable"],
      "commonality": 5,
      "value": 1
    }],
    "tags": ["vegetable"]
  }, {
    "name": "black bean",
    "plural_name": "black beans",
    "adjective": "",
    "commonality": 0,
    "possible_traits": null,
    "common_traits": null,
    "age_categories": null,
    "min_humidity": 3,
    "max_humidity": 10,
    "min_temperature": 2,
    "max_temperature": 10,
    "resources": [{
      "name": "black beans",
      "description": "",
      "main_material": "black bean",
      "origin": "black bean",
      "tags": ["legume", "vegetable"],
      "commonality": 5,
      "value": 1
    }],
    "tags": ["vegetable"]
  }, {
    "name": "pinto bean",
    "plural_name": "pinto beans",
    "adjective": "",
    "commonality": 0,
    "possible_traits": null,
    "common_traits": null,
    "age_categories": null,
    "min_humidity": 3,
    "max_humidity": 10,
    "min_temperature": 2,
    "max_temperature": 10,
    "resources": [{
      "name": "pinto beans",
      "description": "",
      "main_material": "pinto bean",
      "origin": "pinto bean",
      "tags": ["legume", "vegetable"],
      "commonality": 5,
      "value": 1
    }],
    "tags": ["vegetable"]
  }, {
    "name": "lima bean",
    "plural_name": "lima beans",
    "adjective": "",
    "commonality": 0,
    "possible_traits": null,
    "common_traits": null,
    "age_categories": null,
    "min_humidity": 3,
    "max_humidity": 10,
    "min_temperature": 2,
    "max_temperature": 10,
    "resources": [{
      "name": "lima beans",
      "description": "",
      "main_material": "lima bean",
      "origin": "lima bean",
      "tags": ["legume", "vegetable"],
      "commonality": 5,
      "value": 1
    }],
    "tags": ["vegetable"]
  }, {
    "name": "kidney bean",
    "plural_name": "kidney beans",
    "adjective": "",
    "commonality": 0,
    "possible_traits": null,
    "common_traits": null,
    "age_categories": null,
    "min_humidity": 3,
    "max_humidity": 10,
    "min_temperature": 2,
    "max_temperature": 10,
    "resources": [{
      "name": "kidney beans",
      "description": "",
      "main_material": "kidney bean",
      "origin": "kidney bean",
      "tags": ["legume", "vegetable"],
      "commonality": 5,
      "value": 1
    }],
    "tags": ["vegetable"]
  }, {
    "name": "corn",
    "plural_name": "corns",
    "adjective": "",
    "commonality": 0,
    "possible_traits": null,
    "common_traits": null,
    "age_categories": null,
    "min_humidity": 3,
    "max_humidity": 10,
    "min_temperature": 2,
    "max_temperature": 10,
    "resources": [{
      "name": "corn",
      "description": "",
      "main_material": "corn",
      "origin": "corn",
      "tags": ["vegetable"],
      "commonality": 5,
      "value": 1
    }],
    "tags": ["vegetable"]
  }, {
    "name": "jalapeno",
    "plural_name": "jalapenos",
    "adjective": "",
    "commonality": 0,
    "possible_traits": null,
    "common_traits": null,
    "age_categories": null,
    "min_humidity": 3,
    "max_humidity": 10,
    "min_temperature": 2,
    "max_temperature": 10,
    "resources": [{
      "name": "jalapeno",
      "description": "",
      "main_material": "jalapeno",
      "origin": "jalapeno",
      "tags": ["hot pepper", "vegetable"],
      "commonality": 5,
      "value": 1
    }],
    "tags": ["vegetable"]
  }, {
    "name": "habanero",
    "plural_name": "habaneros",
    "adjective": "",
    "commonality": 0,
    "possible_traits": null,
    "common_traits": null,
    "age_categories": null,
    "min_humidity": 3,
    "max_humidity": 10,
    "min_temperature": 2,
    "max_temperature": 10,
    "resources": [{
      "name": "habanero",
      "description": "",
      "main_material": "habanero",
      "origin": "habanero",
      "tags": ["hot pepper", "vegetable"],
      "commonality": 5,
      "value": 1
    }],
    "tags": ["vegetable"]
  }, {
    "name": "serrano",
    "plural_name": "serranos",
    "adjective": "",
    "commonality": 0,
    "possible_traits": null,
    "common_traits": null,
    "age_categories": null,
    "min_humidity": 3,
    "max_humidity": 10,
    "min_temperature": 2,
    "max_temperature": 10,
    "resources": [{
      "name": "serrano",
      "description": "",
      "main_material": "serrano",
      "origin": "serrano",
      "tags": ["hot pepper", "vegetable"],
      "commonality": 5,
      "value": 1
    }],
    "tags": ["vegetable"]
  }]
}